<?xml version="1.0" encoding="utf-8"?>
<!-- Generator: Adobe Illustrator 23.0.2, SVG Export Plug-In . SVG Version: 6.00 Build 0)  -->
<svg version="1.1" id="Capa_1" xmlns="http://www.w3.org/2000/svg" xmlns:xlink="http://www.w3.org/1999/xlink" x="0px" y="0px"
	 viewBox="0 0 759.4 433.1" style="enable-background:new 0 0 759.4 433.1;" xml:space="preserve">
<style type="text/css">
	.st0{fill:none;stroke:#AEADB3;stroke-width:0.5;stroke-linecap:square;stroke-linejoin:bevel;stroke-miterlimit:10;}
	.st1{fill:none;stroke:#AEADB3;stroke-width:0.5;stroke-miterlimit:10;}
	.st2{fill:#4B3D6A;}
	.st3{fill:#FFFFFF;}
	.st4{font-family:'Montserrat-SemiBold';}
	.st5{font-size:12px;}
	.st6{font-family:'Montserrat-Regular';}
	.st7{fill:#9B683B;}
	.st8{fill:#5D7841;}
</style>
<line class="st0" x1="138.1" y1="138.9" x2="605.3" y2="138.9"/>
<line class="st0" x1="138.1" y1="138.9" x2="138.1" y2="154.3"/>
<line class="st1" x1="138.1" y1="358.3" x2="138.1" y2="200.6"/>
<line class="st1" x1="154.5" y1="358.3" x2="121.7" y2="358.3"/>
<line class="st1" x1="154.5" y1="261.4" x2="121.7" y2="261.4"/>
<line class="st1" x1="605.3" y1="409.5" x2="605.3" y2="200.6"/>
<line class="st1" x1="621.8" y1="332.3" x2="588.9" y2="332.3"/>
<line class="st1" x1="621.8" y1="409.5" x2="588.9" y2="409.5"/>
<line class="st1" x1="621.8" y1="256.5" x2="588.9" y2="256.5"/>
<rect x="318" class="st2" width="107.5" height="47.2"/>
<g>
	<text transform="matrix(1 0 0 1 341.7746 18.7117)" class="st3 st4 st5">President</text>
	<text transform="matrix(1 0 0 1 332.5231 35.5369)" class="st3 st6 st5">Sara Monzón</text>
</g>
<rect x="251.9" y="154.3" class="st2" width="107.5" height="47.2"/>
<g>
	<text transform="matrix(1 0 0 1 279.4994 173.0404)" class="st3 st4 st5">Member</text>
	<text transform="matrix(1 0 0 1 264.2538 189.8656)" class="st3 st6 st5">Andrea Rubio</text>
</g>
<rect x="84.3" y="154.3" class="st7" width="107.5" height="47.2"/>
<text transform="matrix(1 0 0 1 102.8856 181.4348)" class="st3 st4 st5">Task forces</text>
<rect x="154.5" y="237.1" class="st7" width="121.7" height="48.5"/>
<g>
	<text transform="matrix(1 0 0 1 187.3471 256.5033)" class="st3 st4 st5">Designer</text>
	<text transform="matrix(1 0 0 1 166.4853 273.3285)" class="st3 st6 st5">Marta Coronado</text>
</g>
<rect x="384.4" y="154.3" class="st2" width="107.5" height="47.2"/>
<g>
	<text transform="matrix(1 0 0 1 412.0342 173.0404)" class="st3 st4 st5">Member</text>
	<text transform="matrix(1 0 0 1 401.2828 189.8656)" class="st3 st6 st5">Alba Álvarez</text>
</g>
<rect x="551.6" y="154.3" class="st8" width="107.5" height="47.2"/>
<text transform="matrix(1 0 0 1 564.5345 181.435)" class="st3 st4 st5">Node leaders</text>
<rect x="475.2" y="231.5" class="st8" width="113.7" height="47.2"/>
<g>
	<text transform="matrix(1 0 0 1 500.7427 250.2409)" class="st3 st4 st5">Barcelona</text>
	<text transform="matrix(1 0 0 1 484.4893 267.0662)" class="st3 st6 st5">Mónica Cabrera</text>
</g>
<rect x="302.9" y="77.2" class="st2" width="137.6" height="47.2"/>
<g>
	<text transform="matrix(1 0 0 1 342.297 95.9318)" class="st3 st4 st5">Secretary</text>
	<text transform="matrix(1 0 0 1 313.9772 112.757)" class="st3 st6 st5">Tamara Hernández</text>
</g>
<rect x="621.7" y="231.5" class="st8" width="137.6" height="47.2"/>
<g>
	<text transform="matrix(1 0 0 1 663.8184 250.2409)" class="st3 st4 st5">Canarias</text>
	<text transform="matrix(1 0 0 1 632.8228 267.0661)" class="st3 st6 st5">Tamara Hernández</text>
</g>
<rect x="475.2" y="308.7" class="st8" width="113.7" height="47.2"/>
<g>
	<text transform="matrix(1 0 0 1 505.543 327.4417)" class="st3 st4 st5">Córdoba</text>
	<text transform="matrix(1 0 0 1 488.251 344.2669)" class="st3 st6 st5">Martín Garrido</text>
</g>
<rect x="621.7" y="308.7" class="st8" width="113.7" height="47.2"/>
<g>
	<text transform="matrix(1 0 0 1 652.3077 327.4417)" class="st3 st4 st5">Granada</text>
	<text transform="matrix(1 0 0 1 637.938 344.2669)" class="st3 st6 st5">Adrián García</text>
</g>
<rect x="621.7" y="385.9" class="st8" width="113.7" height="47.2"/>
<g>
	<text transform="matrix(1 0 0 1 654.1075 404.6425)" class="st3 st4 st5">Euskadi</text>
	<text transform="matrix(1 0 0 1 637.8238 421.4677)" class="st3 st6 st5">Alex Martínez</text>
</g>
<rect x="477.5" y="385.9" class="st8" width="113.7" height="47.2"/>
<g>
	<text transform="matrix(1 0 0 1 512.5294 404.6428)" class="st3 st4 st5">Madrid</text>
	<text transform="matrix(1 0 0 1 498.2794 421.468)" class="st3 st6 st5">Miguel Juliá</text>
</g>
<rect y="231.5" class="st7" width="121.7" height="59.7"/>
<g>
	<text transform="matrix(1 0 0 1 46.1305 250.2409)" class="st3 st4 st5">Web</text>
	<text transform="matrix(1 0 0 1 20.1632 267.0661)"><tspan x="0" y="0" class="st3 st6 st5">Adrián García</tspan><tspan x="-9" y="14.4" class="st3 st6 st5">Mario Rodríguez</tspan></text>
</g>
<rect y="321.3" class="st7" width="121.7" height="74.2"/>
<text transform="matrix(1 0 0 1 31.1066 339.9662)" class="st3 st4 st5">Welcome</text>
<text transform="matrix(1 0 0 1 20.7868 356.7914)"><tspan x="0" y="0" class="st3 st6 st5">Alba Talavera</tspan><tspan x="-7.7" y="14.4" class="st3 st6 st5">Almudena Ortiz</tspan><tspan x="-1.6" y="28.8" class="st3 st6 st5">Javier Lanillos</tspan></text>
<rect x="154.5" y="328.5" class="st7" width="121.7" height="59.7"/>
<text transform="matrix(1 0 0 1 175.9413 347.1898)" class="st3 st4 st5">Social media</text>
<text transform="matrix(1 0 0 1 180.4833 364.015)"><tspan x="0" y="0" class="st3 st6 st5">Lluís Revilla</tspan><tspan x="-11.6" y="14.4" class="st3 st6 st5">Claudia Arnedo</tspan></text>
<line class="st1" x1="305.6" y1="154.3" x2="305.6" y2="138.9"/>
<line class="st1" x1="438.2" y1="154.3" x2="438.2" y2="138.9"/>
<line class="st0" x1="605.3" y1="154.3" x2="605.3" y2="138.9"/>
<line class="st1" x1="371.7" y1="124.4" x2="371.7" y2="138.9"/>
<line class="st1" x1="371.7" y1="77.2" x2="371.7" y2="47.2"/>
</svg>
