<?xml version="1.0" encoding="utf-8"?>
<!-- Generator: Adobe Illustrator 23.0.2, SVG Export Plug-In . SVG Version: 6.00 Build 0)  -->
<svg version="1.1" id="Capa_1" xmlns="http://www.w3.org/2000/svg" xmlns:xlink="http://www.w3.org/1999/xlink" x="0px" y="0px"
	 viewBox="0 0 579 408" style="enable-background:new 0 0 579 408;" xml:space="preserve">
<style type="text/css">
	.st0{opacity:0.82;}
	.st1{fill:#5F4690;}
	.st2{fill:#1D6996;}
	.st3{fill:#3846A5;}
	.st4{fill:none;}
	.st5{fill-rule:evenodd;clip-rule:evenodd;fill:#FFFFFF;}
	.st6{fill:none;stroke:#FFFFFF;stroke-miterlimit:10;}
	.st7{fill:#FFFFFF;}
	.st8{fill:none;stroke:#FFFFFF;stroke-width:3;stroke-miterlimit:10;}
	.st9{font-family:'FranklinGothic-Medium';}
	.st10{font-size:13.1199px;}
	.st11{fill:url(#SVGID_1_);stroke:#FFFFFF;stroke-width:3;stroke-miterlimit:10;}
	.st12{enable-background:new    ;}
	.st13{font-family:'SegoeUI-Light';}
	.st14{font-size:11.3876px;}
	.st15{fill:none;stroke:#3846A5;stroke-miterlimit:10;}
	.st16{fill:none;stroke:#5F4690;stroke-miterlimit:10;}
	.st17{fill:none;stroke:#1D6996;stroke-miterlimit:10;}
</style>
<g>
	<g class="st0">
		<circle class="st1" cx="202.5" cy="213.8" r="194.5"/>
	</g>
	<g class="st0">
		<circle class="st2" cx="274" cy="213.8" r="123"/>
	</g>
	<g class="st0">
		<circle class="st3" cx="461" cy="219" r="92"/>
	</g>
	<g>
		<line class="st4" x1="129.6" y1="226.9" x2="115.7" y2="229.9"/>
		<line class="st4" x1="127.8" y1="211.7" x2="114.4" y2="207.3"/>
		<line class="st4" x1="129.9" y1="189.9" x2="116.3" y2="192.4"/>
		<path class="st5" d="M117.4,240.5c1.3,0.9,2.4,1.5,3,1.7c4.2,1.4,6.5,4.3,7.2,6.4h5.6c-1.1-5.3-5.8-6.9-8.4-8.3
			c-1.2-0.6-2.6-1.4-4-2.4L117.4,240.5L117.4,240.5z"/>
		<path class="st5" d="M130,184.3c4.2,4,6.7,10.8-7.8,18.2c-14.5,7.5,1.6,14.3,4.1,16.1c0.3,0.2,0.6,0.4,0.9,0.6l-3.4,2.6
			c-0.1-0.1-0.2-0.2-0.4-0.3c-14.4-5.9-16-15.1-8.6-20.4c0.3-0.2,0.5-0.3,0.8-0.5c0.3-0.2,1.5-0.8,2.9-1.7
			c4.4-2.7,11.8-7.9,7.7-12.4C127.8,185.8,129,185.1,130,184.3L130,184.3z"/>
		<path class="st5" d="M124.9,180.8c-0.9,0.9-2.1,1.7-3.7,2.3c-6.8-4.1-9.4-6.8-10.3-8.2h5.9C117.8,176.1,120.1,178.3,124.9,180.8
			L124.9,180.8z"/>
		<path class="st5" d="M127.5,219.4c13.3,9.8-0.1,17.4-3.1,18.9c-9.6,5.1-8.3,8.2-7.4,10.3h-5.8c-1.1-3.1-1.6-8,9.2-13.9
			c6.3-3.5,9.1-9.1,5.1-11.1c-0.8-0.4-1-0.9-1.4-1.5L127.5,219.4L127.5,219.4z"/>
		<path class="st5" d="M123,202.2c0.3,0.2,0.7,0.3,0.8,0.4c3.9,1.8,20.8,11.3,0.7,22.2c-8.5,4.6-8.5,8.3-6,11.1
			c-1.4,0.9-2.6,1.7-3.5,2.5c-4.5-4.4-7.6-11.8,7.2-18.6c2.9-1.3,12.6-7-1.1-14.4c-0.7-0.4-1.1-0.6-1.7-1c0.8-0.6,1.8-1.2,3-1.8
			L123,202.2L123,202.2z"/>
		<path class="st5" d="M114.8,201.1c-8.7-8,0.1-14.8,6.4-17.8c5.5-2.4,6.7-6.3,6.9-8.3h5.6c0.4,3.1-0.1,8.7-7.7,11.6
			c-10.1,5.2-9.8,9.5-7.4,12.3c-1.5,0.9-2.6,1.5-3,1.7C115.3,200.7,115.1,200.9,114.8,201.1L114.8,201.1z"/>
		<path class="st5" d="M86.2,231.3h11.9c8.7,0,11.9-5.1,11.9-9.4c0-4.8-3.2-8.2-8.3-9.1v-0.1c3.6-1.5,5.3-3.8,5.3-7.5
			c0-4.4-3.2-8.9-10.7-8.9h-10V231.3L86.2,231.3z M91.2,200.8h4.6c4.5,0,6,2.2,6,4.9c0,3.8-2.4,5.6-7.3,5.6h-3.3V200.8L91.2,200.8z
			 M91.2,215.8h5.9c5.3,0,7.7,2.2,7.7,5.4c0,2.6-1.6,5.6-7.4,5.6h-6.2V215.8L91.2,215.8z"/>
		<path class="st5" d="M86.8,198.6c-4.7-2-8.2-2.7-11.7-2.7c-10.9,0-18.8,7.6-18.8,18.3c0,7.4,5.6,17.5,18.5,17.5
			c5.4,0,9-1.3,12.4-3.1v-5.1c-3.8,2.6-8.1,4-11.9,4c-8.2,0-14.3-5.9-14.3-13.8c0-7.7,6.3-13.6,14.1-13.6c4,0,7.6,1.1,11.8,3.7
			L86.8,198.6L86.8,198.6z"/>
		<path class="st5" d="M32,231.4c0.4,1,6.5,6.1,14-1.8c6.9-7.3-3-15.2-3-15.2c-12.8-11.9,0.4-21.8,6.7-22.2c4.2-0.2,9.9,1.1,9.9,1.1
			l-2.2,11.3h-1.6l0.3-5c0-0.8-1-8.9-9.8-3.9c-1.3,0.8-8.3,6.7-0.1,13.8c22.1,18.5-10.1,32.9-18.5,23.4c-4.1-4.7-1.6-8.1,1.2-7.7
			C30.9,225.5,31.2,229.6,32,231.4L32,231.4z"/>
		<path class="st5" d="M34.8,183.9c-2.5,0-3.5,2.4-3.5,3.8c0,1.1,0.7,2.2,2.3,2.2c2,0,3.4-1.9,3.4-3.8
			C37,184.8,36.3,183.9,34.8,183.9L34.8,183.9z"/>
		<path class="st5" d="M24.6,218.1c-0.9,3,0.5,4.1,1,4.5c0.3,0.4,1.3,0.3,1.6,0.2c4.4-0.5,9.4-6.5,9.4-6.5l-1.4-1.3
			c0,0-3.5,4.1-5.1,4c-0.9,0-0.8-1.4-0.6-2.1l5.1-19.3c0.6-2,0.3-2.6-0.1-2.9c-0.3-0.3-1.3-0.5-1.8-0.4c-2.1,0.2-7.1,2.1-10.2,6.6
			l1.3,1c2.9-3,4.4-3.7,4.9-3.7c0.4,0,0.8,0.4,0.5,1.6L24.6,218.1L24.6,218.1z"/>
	</g>
	<line class="st6" x1="116" y1="192" x2="130" y2="190"/>
	<line class="st6" x1="115" y1="230" x2="129" y2="228"/>
	<line class="st6" x1="113.5" y1="207.5" x2="129.5" y2="211.5"/>
	<g>
		<g>
			<path class="st7" d="M185.3,188.7c-0.4,0.1-0.7,0.6-0.9,1c-0.2,0.5-0.2,1.4,0,1.7c0.5,0.6,1.5,0.7,2.2,0.1
				c0.5-0.4,0.7-0.9,0.7-1.6c0-0.5-0.1-0.6-0.4-0.9c-0.3-0.3-0.4-0.4-0.9-0.3C185.7,188.6,185.4,188.7,185.3,188.7L185.3,188.7z"/>
		</g>
		<path class="st7" d="M239.2,189.1c-2.3,0.3-4.3,1.4-5.4,3.1c-1.2,1.7-1.5,3.7-0.9,5.7c0.4,1.4,0.9,2,3.4,4.7
			c2.6,2.6,3.1,3.6,2.7,4.9c-0.3,0.9-0.8,1.5-1.6,2c-1.6,0.9-3.7,0.5-6-1.1c-0.4-0.3-0.8-0.5-0.9-0.5c0,0-0.2,0.8-0.4,1.7
			c-0.5,1.9-0.6,1.7,1.1,2.5c1.5,0.7,2.4,0.9,3.9,0.9c1.9,0,3.3-0.5,4.6-1.4c2.2-1.7,3.2-4.9,2.2-7.4c-0.5-1.2-1.1-2.1-2.8-3.9
			c-2-2-2.5-2.7-3-3.7c-0.4-0.9-0.5-1.3-0.2-2.1c0.4-1.2,1.6-2.1,3.2-2.4c1.1-0.2,2,0,3.4,0.6c0.6,0.3,1.1,0.5,1.1,0.5
			c0.1-0.1,0.6-3.1,0.5-3.2c-0.2-0.2-1.9-0.7-2.9-0.9C240.4,189.1,239.9,189,239.2,189.1L239.2,189.1z"/>
		<path class="st7" d="M292.6,193.3l-0.8,3.7l-1.3,0.1c-2.9,0.1-4.8,0.9-6.8,2.6c-2.1,1.9-3.4,4.7-3.4,7.4c0,1.8,0.5,3,1.5,4.1
			c1.5,1.5,3.9,2.1,7.6,1.8c0.9-0.1,1.6-0.2,1.6-0.2c0,0,1.2-5.2,2.6-11.4s2.6-11.5,2.7-11.6c0.1-0.2-0.1-0.2-1.4-0.2h-1.5
			L292.6,193.3z M291,199.8c0,0-0.5,2.4-1.2,5.3l-1.2,5.3l-0.6,0.1c-2.1,0.3-3.7-0.5-4.5-2.2c-0.3-0.6-0.3-0.8-0.3-1.9
			c0-1.1,0-1.4,0.3-2.1c0.6-1.8,1.8-3.1,3.5-3.9c0.4-0.2,0.9-0.4,1.2-0.5C289.3,199.7,290.8,199.6,291,199.8L291,199.8z"/>
		<path class="st7" d="M192.9,192.8c-0.9,0.1-2.3,0.7-3.1,1.3c-2.1,1.5-3.3,4-2.8,6c0.3,1.3,0.8,2.1,2.7,4c1.9,2,2.3,2.5,2.7,3.6
			c1,2.8-2,6.1-5.5,6.2c-1,0-1.7-0.2-2.3-0.8c-0.4-0.4-0.6-0.7-1-1.9c-0.4-1.3-0.7-1.6-1.5-1.6c-0.5,0-0.6,0-0.9,0.4
			c-0.8,0.9-0.6,2.1,0.5,3.2c1.4,1.6,3.3,2.1,5.9,1.8c5.4-0.7,9-5.2,7.4-9.2c-0.4-1-1.1-1.8-2.9-3.8c-2.4-2.5-2.7-3.1-2.3-4.7
			c0.3-1.5,1.6-2.8,3.1-3.3c1.5-0.5,2.7-0.1,3.4,1.1c0.3,0.6,0.3,0.6,0.3,2c0,0.8,0,1.6-0.1,1.8c-0.1,0.3-0.1,0.3,0.4,0.3
			c0.6,0,0.5,0.1,0.8-1.9c0.1-0.7,0.3-1.9,0.5-2.6c0.2-0.7,0.3-1.3,0.3-1.3c0,0-0.8-0.2-1.6-0.3
			C195.1,192.7,194.1,192.7,192.9,192.8L192.9,192.8z"/>
		<path class="st7" d="M183.9,193.6c-0.5,0.1-1.7,0.7-2.4,1.2c-0.8,0.6-2.5,2.1-2.5,2.3c0,0.1,0.7,0.6,0.9,0.6
			c0.1,0,0.4-0.3,0.8-0.7c1.1-1.1,2.1-1.6,2.2-1.1c0,0.1-0.2,1.2-0.6,2.5c-0.9,2.9-1.7,6.2-1.9,7.5c-0.4,2.4-0.1,3.2,1.4,3.1
			c1.1,0,2.7-1.1,4.6-2.9l0.8-0.7l-0.4-0.4c-0.3-0.3-0.4-0.3-0.5-0.3c-0.1,0.1-0.6,0.5-1.3,1c-1.5,1.3-1.9,1.3-1.9,0.3
			c0-0.7,0.7-3.4,1.6-6.6c1.1-3.5,1.4-5,1.3-5.3c-0.1-0.5-0.6-0.7-1.2-0.7C184.4,193.5,184,193.6,183.9,193.6L183.9,193.6z"/>
		<path class="st7" d="M252.4,195c-0.2,0.6-0.4,1.3-0.5,1.6l-0.2,0.6l-1.2,0l-1.2,0l-0.3,1c-0.2,0.5-0.3,1-0.3,1.1
			c0,0.1,0.2,0.1,1.2,0.1c1.1,0,1.2,0,1.2,0.2c-0.6,1.8-2.1,7.6-2.3,8.3c-0.4,2.3,0.2,3.9,1.8,4.6c1.2,0.5,2.4,0.5,4.2-0.2l1-0.4
			l0.1-1.4c0.1-0.8,0.1-1.4,0.1-1.4c0,0-0.4,0.2-0.9,0.4c-2.1,1-3.4,0.4-3.3-1.4c0.1-0.9,0.2-1.3,1.4-5.4l1-3.4l2.9-0.1l0.3-1
			c0.2-0.6,0.3-1,0.3-1.1c0,0-0.6-0.1-1.4-0.1c-0.8,0-1.4,0-1.4-0.1c0,0,0.2-0.7,0.4-1.4c0.2-0.8,0.4-1.4,0.4-1.6
			c0.1-0.2-0.1-0.2-1.4-0.2h-1.5L252.4,195z"/>
		<path class="st7" d="M339.4,195.7l-0.5,1.6h-2.5l-0.3,1c-0.2,0.6-0.3,1.1-0.3,1.1c0,0.1,0.2,0.1,1.2,0.1c1.1,0,1.2,0,1.2,0.2
			c-0.6,2-2.2,7.9-2.3,8.5c-0.4,2.1,0.3,3.7,1.8,4.4c1.2,0.5,2.5,0.5,4.2-0.2l1-0.4l0.1-1.4c0.1-0.8,0.1-1.4,0.1-1.4
			c0,0-0.4,0.2-0.9,0.4c-0.8,0.4-1,0.4-1.6,0.4c-0.9,0-1.3-0.2-1.5-0.9c-0.2-0.6-0.1-1.5,1.2-5.8l1.1-3.8l1.4,0l1.5,0l0.3-1
			c0.2-0.6,0.3-1,0.3-1.1c0,0-0.6-0.1-1.4-0.1s-1.4,0-1.4-0.1c0,0,0.2-0.7,0.5-1.6c0.2-0.8,0.5-1.5,0.5-1.5c0,0-0.7-0.1-1.5-0.1
			h-1.5L339.4,195.7z"/>
		<path class="st7" d="M205,194.5c-3,0.4-5.8,2.3-7.2,4.9c-0.9,1.8-1.2,3.4-1,5.5c0.3,2.3,1.4,4.4,3.2,5.9c2,1.7,3.9,2.4,6.8,2.3
			c1.7,0,2.8-0.2,4.2-0.7c0.5-0.2,0.9-0.3,0.9-0.3s0.1,0.2,0.1,0.5v0.5l4-0.1c2.6,0,4.2-0.1,4.5-0.2c1-0.2,1.9-0.8,2.6-1.4
			c1.2-1.1,1.6-2.4,1.3-4.1c-0.3-1.7-1.4-3-3.1-3.7l-0.8-0.3l0.6-0.3c1.1-0.6,1.7-1.4,1.9-2.8c0.3-2.1-0.6-4-2.3-4.8
			c-1.2-0.6-1.6-0.6-5.3-0.6l-3.5-0.1v0.6l-1-0.3C209.2,194.5,206.7,194.3,205,194.5L205,194.5z M208.6,197.1
			c0.4,0.1,1.4,0.4,2.1,0.6l1.3,0.5v10.9l-1.1,0.5c-1.6,0.7-2.7,0.9-4.2,0.9c-2.1,0-3.8-0.6-5.2-2.1c-1.3-1.3-1.9-2.8-1.9-4.7
			c0-2,0.6-3.4,2-4.8c1.4-1.4,3.1-2.1,5.2-2.1C207.3,197,208.2,197,208.6,197.1L208.6,197.1z M218.9,197.7c1,0.5,1.4,1.6,1.1,2.8
			c-0.4,1.5-1.6,2.1-4.5,2.2h-0.9v-5.4l1.9,0.1C218.2,197.4,218.4,197.4,218.9,197.7L218.9,197.7z M219.6,205.4
			c1.6,0.5,2.2,1.6,1.9,3.2c-0.4,1.6-1.5,2.1-5.3,2.1h-1.6v-5.6l2.2,0.1C218.4,205.2,219.1,205.2,219.6,205.4L219.6,205.4z"/>
		<path class="st7" d="M305.5,197c-1,0.1-1.7,0.4-2.6,0.8c-1.8,1.1-3.3,3-3.9,5.2c-1,3.4-0.6,6.4,1.1,8.2c1.1,1.3,2.2,1.7,4.1,1.7
			c0.8,0,1.4-0.1,2-0.2c0.8-0.2,2.4-0.9,2.9-1.3c0.1-0.1,0.3-0.6,0.6-1.7c0.2-0.9,0.4-1.6,0.3-1.6s-0.5,0.2-1,0.6
			c-1.8,1.2-3,1.6-4.3,1.6c-1.2,0-2-0.5-2.6-1.7c-0.4-0.7-0.4-0.9-0.5-1.7c0-0.5,0-1.2,0-1.5l0.1-0.6h9.2l0.1-0.9
			c0.3-4-0.5-6-2.8-6.7C307.6,197,306.4,196.9,305.5,197L305.5,197z M307.3,199.7c0.7,0.4,1.1,1.1,1.1,2.1v0.8h-3c-1.6,0-3,0-3-0.1
			c0-0.2,0.8-1.5,1.2-1.9C304.6,199.5,306.2,199.1,307.3,199.7L307.3,199.7z"/>
		<path class="st7" d="M325.9,197.3c-1.3,0.2-2.6,0.9-3.9,2c-0.4,0.3-0.6,0.5-0.6,0.5c0,0,0.1-0.5,0.2-0.9c0.4-1.3,0.5-1.2-1.2-1.2
			c-0.8,0-1.5,0-1.5,0.1c0,0-0.8,3.4-1.7,7.5s-1.7,7.5-1.7,7.6c0,0.1,0.2,0.2,1.4,0.2h1.4l0.6-2.4c0.3-1.3,0.9-3.6,1.2-5.1l0.6-2.7
			l1-1c1.3-1.3,2.3-1.9,3.3-1.9c1.3-0.1,1.9,0.5,1.7,1.8c0,0.4-0.6,2.9-1.2,5.6c-0.6,2.8-1.1,5.2-1.2,5.4l-0.1,0.4h1.5
			c1.3,0,1.5,0,1.5-0.2c0.1-0.2,1.6-6.9,2.1-9c0.8-3.4,0.3-5.5-1.3-6.2C327.3,197.3,326.6,197.2,325.9,197.3L325.9,197.3z"/>
		<path class="st7" d="M264.1,197.5c-1,4.3-2.1,9.1-2.2,9.8c-0.4,2.2-0.2,3.8,0.6,4.7c0.5,0.5,0.9,0.7,1.6,0.9
			c1.5,0.3,3.5-0.4,5.2-1.9c0.4-0.3,0.7-0.5,0.7-0.5c0,0-0.1,0.5-0.2,1c-0.1,0.6-0.2,1-0.2,1.1c0,0,0.6,0.1,1.4,0.1
			c1.3,0,1.5,0,1.5-0.2c0.1-0.4,3.4-14.9,3.4-15c0-0.1-0.4-0.1-1.4-0.1h-1.4l-0.6,2.6c-0.4,1.4-0.9,3.7-1.2,5l-0.6,2.4l-1,1
			c-1.8,1.8-3.6,2.5-4.6,1.8c-0.4-0.3-0.6-0.9-0.4-1.8c0.1-0.4,0.6-2.9,1.2-5.7c0.6-2.8,1.1-5.1,1.1-5.1s-0.6-0.1-1.5-0.1
			C264.2,197.3,264.2,197.3,264.1,197.5L264.1,197.5z"/>
		<path class="st7" d="M229,217.2c-4.7,0.4-8.3,3.2-9.4,7.4c-0.8,2.9-0.5,6.4,0.8,8.9c1.7,3.2,4.6,5.1,8.4,5.4
			c2.7,0.2,5.3-0.3,7.8-1.5l1-0.5v-2.5c0-2,0-2.5-0.1-2.5c-0.1,0.1-0.5,0.3-0.9,0.6c-1.1,0.7-2.5,1.3-3.7,1.7
			c-1.3,0.4-3.4,0.4-4.4,0.1c-2.6-0.8-4.1-3-4.1-6.1c0-2,0.6-3.5,1.7-4.7c2.3-2.3,6.6-2.3,10.5,0c0.4,0.3,0.8,0.5,0.9,0.5
			c0,0,0.1-1.1,0.1-2.5v-2.5l-0.8-0.4C234.4,217.5,231.6,217,229,217.2L229,217.2z"/>
		<path class="st7" d="M319.7,217.2c-4.8,0.4-8.3,3.3-9.5,7.6c-0.3,1-0.3,1.2-0.3,3.2c0,2,0,2.2,0.3,3.3c1.5,5.1,5.9,8,11.6,7.5
			c2-0.2,3.7-0.6,5.6-1.6l1-0.5v-2.5c0-1.4,0-2.5-0.1-2.5c0,0-0.5,0.3-1,0.6c-3.2,2.1-6.8,2.6-9.2,1.4c-1.4-0.7-2.6-2.3-2.9-4
			c-0.7-3.2,0.5-6.1,2.9-7.4c2.4-1.3,6.1-0.9,9.2,1c0.4,0.3,0.8,0.5,0.8,0.5c0,0,0.1-1.1,0.1-2.5v-2.5l-1-0.4
			C324.7,217.4,322.3,217,319.7,217.2L319.7,217.2z"/>
		<path class="st7" d="M248.5,217.3c-3.2,0.4-6,2.4-7.6,5.4c-1.7,3.1-1.7,7.7,0,10.8c0.6,1.1,1.7,2.4,2.7,3.2c3.7,3,10.1,3,13.8,0
			c2.9-2.4,4.3-6,3.9-10c-0.5-4.5-3.3-7.9-7.5-9.1c-0.9-0.2-1.3-0.3-2.8-0.3C250,217.3,248.9,217.3,248.5,217.3L248.5,217.3z
			 M252.3,222c1.4,0.5,2.6,1.6,3.2,3c0.4,1,0.6,1.8,0.6,3.1c0,1.8-0.4,3-1.3,4.2c-1.1,1.4-2.5,2.1-4.3,2.1c-2.1,0-3.8-1-4.9-2.9
			c-1.1-2-1.1-4.8,0-6.8c0.9-1.6,2.2-2.6,4.1-2.9C250.3,221.7,251.7,221.8,252.3,222L252.3,222z"/>
		<path class="st7" d="M177.5,217.4c-1.9,0.1-4.3,0.8-6.5,1.8l-1.2,0.5v3.6l0.8-0.4c2.8-1.4,5.7-1.6,6.8-0.3c0.7,0.8,0.8,2,0.2,3.5
			c-0.4,1.1-2.3,4-2.9,4.5c-1.1,1.1-3.1,2.3-4.4,2.9l-0.6,0.3v1.8c0,1,0,1.8,0.1,1.8c0.1,0,2.4-1.2,3.3-1.7l1-0.6l0.1,0.4
			c0.2,0.9,0.9,2,1.7,2.5c2.5,1.5,6.3,1.1,10.9-1c1.3-0.6,2.8-1.5,3.9-2.2l0.7-0.5v0.5c0,1.1,0.7,2.6,1.5,3.1
			c0.7,0.5,1.7,0.8,2.9,0.9c1.2,0.1,1.4,0.1,2.6-0.1c1.7-0.3,3.3-0.8,4.9-1.5c1.2-0.6,2.8-1.4,3.7-2l0.4-0.3l0.2,0.8
			c0.2,0.9,0.7,1.7,1.4,2.1c1.7,1.3,5.1,1.3,8.6,0.2c0.7-0.2,3.3-1.4,3.6-1.6c0,0-0.2-0.3-0.5-0.7c-0.3-0.4-0.7-0.9-0.9-1.2
			c-0.2-0.3-0.4-0.6-0.4-0.6c-0.1,0-0.4,0-0.9,0.2c-2.5,0.8-4.7,0.4-5.5-0.9c-0.2-0.4-0.3-0.6-0.3-1.4c0-1.2,0.2-1.7,1.7-3.5
			c1.3-1.7,2.3-2.6,3.5-3.6c0.7-0.5,0.8-0.7,1.3-1.7c0.3-0.7,0.8-1.4,1.3-2c0.4-0.5,0.7-0.9,0.7-1c-0.1-0.1-1.4,0.3-2.1,0.7
			c-0.4,0.2-1.1,0.7-1.6,1l-0.9,0.6v-0.8c0-3-2.4-4.6-6.6-4.1c-1.5,0.2-2.8,0.5-4.3,1.1c-1.2,0.5-3.4,1.5-4.5,2.2l-0.7,0.4l-0.1-0.4
			c-0.4-1.7-1.2-2.5-2.7-3.1c-1.8-0.7-5-0.4-8.1,0.8c-1.8,0.7-4.7,2.2-5.9,3.1l-0.4,0.3l-0.1-0.8
			C183.1,218.7,180.9,217.2,177.5,217.4L177.5,217.4z M193.7,222.1c1.3,0.7,1.9,2.2,1.3,3.7c-0.2,0.5-2.2,3-3.3,4.1
			c-2.5,2.6-6,4.4-8.8,4.5c-0.9,0.1-1.3,0-1.7-0.1c-1.2-0.4-1.8-1.3-1.8-2.4c0-0.7,0.3-1.7,0.5-1.9c0.1-0.1,0.6-0.8,1.2-1.5
			c1.2-1.6,2.4-2.8,3.7-3.8c1.9-1.4,4.2-2.5,5.8-2.8C191.7,221.8,193.2,221.8,193.7,222.1L193.7,222.1z M209.4,222
			c0.7,0.2,1.4,0.7,1.6,1.3c0.2,0.3,0.2,0.6,0.2,1.3c0,1.3-0.4,2.1-2.2,4.9c-1.1,1.7-4.2,3.8-6.8,4.7c-1.3,0.4-2.5,0.6-3.3,0.5
			c-1.6-0.3-2.4-1.1-2.4-2.6c0-1.3,0.3-2,2-4.6c0.9-1.3,1.5-1.9,3.1-3C204.7,222.3,207.6,221.4,209.4,222L209.4,222z"/>
		<path class="st7" d="M264,223.3c0,6.3,0.1,8,0.5,9.4c1.1,4.3,4.9,6.6,10.2,6.2c4.3-0.4,7-2.5,8-6.3l0.3-1l0-7.1l0-7.1H278v6.5
			c0,6.9,0,7.2-0.6,8.4c-0.4,0.8-1.2,1.5-2,1.8c-0.9,0.3-2.1,0.4-3,0.2c-1.4-0.4-2.3-1.2-2.8-2.6c-0.3-0.7-0.3-0.7-0.3-7.5l0-6.8
			H264L264,223.3L264,223.3z"/>
		<path class="st7" d="M286.8,228v10.6h5.1l0-6.5l0-6.5l5.5,6.5l5.5,6.5h4v-21.2h-5l0,6.2l0,6.2l-5.3-6.2l-5.3-6.2h-4.5L286.8,228
			L286.8,228z"/>
		<path class="st7" d="M331.4,228v10.6h5.2v-21.2h-5.2V228z"/>
		<path class="st7" d="M340.6,228v10.6h13.8v-4.1h-8.7v-17h-5.1V228z"/>
	</g>
	<g>
		<line class="st8" x1="420.4" y1="225.4" x2="514" y2="228.8"/>
		<line class="st8" x1="449.4" y1="267.9" x2="495.6" y2="187.3"/>
		<line class="st8" x1="441.1" y1="188.8" x2="503.8" y2="266"/>
		<circle class="st8" cx="414.3" cy="225.4" r="6.5"/>
		
			<ellipse transform="matrix(0.1602 -0.9871 0.9871 0.1602 158.9825 728.0815)" class="st8" cx="507.4" cy="270.6" rx="6.5" ry="6.5"/>
		<circle class="st8" cx="519.9" cy="229.3" r="6.5"/>
		<g>
			<g>
				<path class="st7" d="M411.9,150.7c-0.2,0.1-0.5,0.3-0.5,0.6c-0.1,0.3-0.1,0.9,0,1.1c0.3,0.4,0.9,0.4,1.3,0.1
					c0.3-0.3,0.4-0.6,0.4-1c0-0.3,0-0.4-0.2-0.6c-0.2-0.2-0.3-0.2-0.5-0.2C412.2,150.6,412,150.6,411.9,150.7L411.9,150.7z"/>
			</g>
			<path class="st7" d="M414.2,168.5c-1.4,0.2-2.6,0.9-3.3,1.9c-0.7,1.1-0.9,2.3-0.5,3.5c0.3,0.9,0.5,1.2,2.1,2.9
				c1.6,1.6,1.9,2.2,1.7,3c-0.2,0.5-0.5,0.9-1,1.2c-1,0.6-2.3,0.3-3.7-0.7c-0.3-0.2-0.5-0.3-0.5-0.3c0,0-0.1,0.5-0.3,1.1
				c-0.3,1.2-0.3,1.1,0.7,1.5c0.9,0.4,1.5,0.6,2.4,0.6c1.1,0,2-0.3,2.8-0.9c1.4-1,2-3,1.4-4.5c-0.3-0.7-0.7-1.3-1.7-2.4
				c-1.2-1.2-1.5-1.6-1.8-2.3c-0.3-0.5-0.3-0.8-0.1-1.3c0.3-0.8,1-1.3,2-1.5c0.7-0.1,1.2,0,2.1,0.4c0.4,0.2,0.7,0.3,0.7,0.3
				c0.1-0.1,0.4-1.9,0.3-2c-0.1-0.1-1.2-0.4-1.8-0.5C415,168.5,414.7,168.5,414.2,168.5L414.2,168.5z"/>
			<path class="st7" d="M447,171.1l-0.5,2.3l-0.8,0c-1.8,0.1-3,0.5-4.2,1.6c-1.3,1.2-2.1,2.9-2.1,4.6c0,1.1,0.3,1.8,1,2.5
				c0.9,0.9,2.4,1.3,4.7,1.1c0.5-0.1,1-0.1,1-0.1c0,0,0.8-3.2,1.6-7s1.6-7.1,1.6-7.1c0-0.1,0-0.1-0.9-0.1h-0.9L447,171.1z
				 M446.1,175.1c0,0-0.3,1.5-0.7,3.3l-0.7,3.3l-0.4,0.1c-1.3,0.2-2.3-0.3-2.7-1.3c-0.2-0.3-0.2-0.5-0.2-1.1c0-0.6,0-0.8,0.2-1.3
				c0.4-1.1,1.1-1.9,2.1-2.4c0.2-0.1,0.6-0.3,0.8-0.3C445,175,446,175,446.1,175.1L446.1,175.1z"/>
			<path class="st7" d="M416.6,153.2c-0.6,0.1-1.4,0.4-1.9,0.8c-1.3,0.9-2,2.4-1.7,3.7c0.2,0.8,0.5,1.3,1.6,2.5s1.4,1.6,1.6,2.2
				c0.6,1.7-1.2,3.8-3.4,3.8c-0.6,0-1.1-0.1-1.4-0.5c-0.3-0.2-0.3-0.4-0.6-1.2c-0.3-0.8-0.4-1-0.9-1c-0.3,0-0.4,0-0.6,0.3
				c-0.5,0.5-0.3,1.3,0.3,2c0.9,0.9,2,1.3,3.6,1.1c3.3-0.4,5.5-3.2,4.5-5.7c-0.3-0.6-0.7-1.1-1.8-2.3c-1.5-1.5-1.6-1.9-1.4-2.9
				c0.2-0.9,1-1.7,1.9-2c0.9-0.3,1.7-0.1,2.1,0.6c0.2,0.3,0.2,0.4,0.2,1.2c0,0.5,0,1,0,1.1c0,0.2,0,0.2,0.3,0.2
				c0.4,0,0.3,0.1,0.5-1.2c0.1-0.4,0.2-1.2,0.3-1.6c0.1-0.4,0.2-0.8,0.2-0.8c0,0-0.5-0.1-1-0.2C418,153.1,417.4,153.1,416.6,153.2
				L416.6,153.2z"/>
			<path class="st7" d="M411.1,153.7c-0.3,0.1-1,0.4-1.5,0.8c-0.5,0.3-1.5,1.3-1.5,1.4c0,0.1,0.4,0.4,0.5,0.4c0,0,0.3-0.2,0.5-0.4
				c0.7-0.7,1.3-1,1.4-0.7c0,0.1-0.1,0.8-0.4,1.5c-0.5,1.8-1,3.8-1.2,4.6c-0.3,1.4,0,1.9,0.8,1.9c0.6,0,1.6-0.6,2.8-1.8l0.5-0.4
				l-0.2-0.2c-0.2-0.2-0.3-0.2-0.3-0.2c0,0-0.4,0.3-0.8,0.6c-0.9,0.8-1.2,0.8-1.1,0.2c0-0.4,0.4-2.1,1-4.1c0.6-2.2,0.9-3.1,0.8-3.3
				c-0.1-0.3-0.3-0.4-0.7-0.4C411.4,153.6,411.2,153.7,411.1,153.7L411.1,153.7z"/>
			<path class="st7" d="M422.4,172.1c-0.1,0.3-0.2,0.8-0.3,1l-0.1,0.4l-0.8,0l-0.8,0l-0.2,0.6c-0.1,0.3-0.2,0.6-0.2,0.7
				c0,0.1,0.1,0.1,0.7,0.1c0.7,0,0.8,0,0.7,0.1c-0.3,1.1-1.3,4.6-1.4,5.1c-0.3,1.4,0.1,2.4,1.1,2.8c0.7,0.3,1.5,0.3,2.6-0.1l0.6-0.2
				l0.1-0.8c0-0.5,0.1-0.8,0.1-0.9c0,0-0.3,0.1-0.5,0.2c-1.3,0.6-2.1,0.2-2-0.8c0-0.5,0.1-0.8,0.8-3.3l0.6-2.1l1.8,0l0.2-0.6
				c0.1-0.3,0.2-0.6,0.2-0.7s-0.4-0.1-0.9-0.1s-0.9,0-0.9,0c0,0,0.1-0.4,0.3-0.9c0.1-0.5,0.3-0.9,0.3-0.9c0-0.1,0-0.1-0.9-0.1h-0.9
				L422.4,172.1z"/>
			<path class="st7" d="M475.8,172.5l-0.3,1H474l-0.2,0.6c-0.1,0.3-0.2,0.6-0.2,0.7c0,0.1,0.1,0.1,0.7,0.1c0.7,0,0.8,0,0.7,0.1
				c-0.4,1.3-1.4,4.8-1.4,5.2c-0.2,1.3,0.2,2.3,1.1,2.7c0.7,0.3,1.5,0.3,2.6-0.1l0.6-0.3l0.1-0.8c0-0.5,0.1-0.8,0-0.9
				c0,0-0.3,0.1-0.5,0.2c-0.5,0.2-0.6,0.3-1,0.3c-0.5,0-0.8-0.1-0.9-0.6c-0.1-0.4,0-0.9,0.7-3.6l0.7-2.3l0.9,0l0.9,0l0.2-0.6
				c0.1-0.3,0.2-0.6,0.2-0.7s-0.4-0.1-0.9-0.1c-0.5,0-0.9,0-0.9-0.1s0.1-0.4,0.3-0.9s0.3-0.9,0.3-0.9s-0.4,0-0.9,0h-0.9L475.8,172.5
				z"/>
			<path class="st7" d="M424,154.2c-1.9,0.2-3.6,1.4-4.4,3c-0.6,1.1-0.8,2.1-0.6,3.4c0.2,1.4,0.9,2.7,2,3.6c1.2,1,2.4,1.4,4.1,1.4
				c1,0,1.7-0.1,2.6-0.4c0.3-0.1,0.6-0.2,0.6-0.2c0,0,0,0.1,0,0.3v0.3l2.5,0c1.6,0,2.6-0.1,2.8-0.1c0.6-0.1,1.2-0.5,1.6-0.9
				c0.7-0.7,1-1.5,0.8-2.5c-0.2-1.1-0.8-1.9-1.9-2.3l-0.5-0.2l0.3-0.2c0.7-0.3,1.1-0.9,1.2-1.7c0.2-1.3-0.4-2.5-1.4-2.9
				c-0.7-0.3-1-0.4-3.2-0.4l-2.1,0v0.3l-0.6-0.2C426.6,154.2,425.1,154.1,424,154.2L424,154.2z M426.3,155.8
				c0.3,0.1,0.9,0.2,1.3,0.4l0.8,0.3v6.7l-0.7,0.3c-1,0.4-1.7,0.6-2.6,0.6c-1.3,0-2.3-0.4-3.2-1.3c-0.8-0.8-1.2-1.7-1.2-2.9
				c0-1.2,0.4-2.1,1.2-2.9c0.9-0.9,1.9-1.3,3.2-1.3C425.5,155.7,426,155.8,426.3,155.8L426.3,155.8z M432.6,156.2
				c0.6,0.3,0.9,0.9,0.7,1.7c-0.2,0.9-1,1.3-2.8,1.3h-0.6v-3.3l1.1,0C432.2,156,432.3,156,432.6,156.2L432.6,156.2z M433,160.9
				c1,0.3,1.4,1,1.2,2c-0.2,1-0.9,1.3-3.2,1.3h-1v-3.4l1.4,0C432.3,160.8,432.7,160.8,433,160.9L433,160.9z"/>
			<path class="st7" d="M455,173.3c-0.6,0.1-1.1,0.2-1.6,0.5c-1.1,0.7-2,1.9-2.4,3.2c-0.6,2.1-0.4,3.9,0.7,5c0.7,0.8,1.4,1.1,2.5,1
				c0.5,0,0.8,0,1.2-0.1c0.5-0.1,1.5-0.6,1.8-0.8c0.1-0.1,0.2-0.4,0.4-1c0.1-0.5,0.2-1,0.2-1c0,0-0.3,0.1-0.6,0.4
				c-1.1,0.7-1.9,1-2.6,1c-0.8,0-1.2-0.3-1.6-1.1c-0.2-0.4-0.3-0.6-0.3-1.1c0-0.3,0-0.7,0-0.9l0-0.4h5.6l0-0.5
				c0.2-2.5-0.3-3.7-1.7-4.1C456.3,173.3,455.5,173.3,455,173.3L455,173.3z M456,175c0.4,0.2,0.7,0.7,0.7,1.3v0.5h-1.8
				c-1,0-1.8,0-1.8,0c0-0.1,0.5-0.9,0.7-1.2C454.4,174.9,455.4,174.7,456,175L456,175z"/>
			<path class="st7" d="M467.5,173.5c-0.8,0.1-1.6,0.6-2.4,1.2c-0.2,0.2-0.4,0.3-0.4,0.3s0.1-0.3,0.1-0.6c0.2-0.8,0.3-0.8-0.8-0.8
				c-0.5,0-0.9,0-0.9,0c0,0-0.5,2.1-1.1,4.6c-0.6,2.5-1.1,4.6-1.1,4.7c0,0.1,0.1,0.1,0.9,0.1h0.9l0.4-1.5c0.2-0.8,0.5-2.2,0.8-3.1
				l0.4-1.6l0.6-0.6c0.8-0.8,1.4-1.1,2-1.2c0.8-0.1,1.1,0.3,1,1.1c0,0.2-0.4,1.8-0.7,3.5c-0.4,1.7-0.7,3.2-0.7,3.3l0,0.2h0.9
				c0.8,0,0.9,0,0.9-0.1s1-4.3,1.3-5.6c0.5-2.1,0.2-3.4-0.8-3.8C468.4,173.5,468,173.5,467.5,173.5L467.5,173.5z"/>
			<path class="st7" d="M429.5,173.7c-0.6,2.7-1.3,5.6-1.4,6c-0.3,1.4-0.1,2.3,0.4,2.9c0.3,0.3,0.5,0.4,1,0.5
				c0.9,0.2,2.1-0.3,3.2-1.2c0.2-0.2,0.4-0.3,0.4-0.3c0,0,0,0.3-0.1,0.6c-0.1,0.3-0.1,0.6-0.1,0.7c0,0,0.4,0.1,0.9,0.1
				c0.8,0,0.9,0,0.9-0.1c0.1-0.3,2.1-9.2,2.1-9.2c0-0.1-0.2-0.1-0.9-0.1h-0.9l-0.4,1.6c-0.2,0.9-0.5,2.3-0.7,3.1l-0.4,1.5l-0.6,0.6
				c-1.1,1.1-2.2,1.5-2.8,1.1c-0.3-0.2-0.4-0.6-0.3-1.1c0-0.2,0.4-1.8,0.8-3.5c0.4-1.7,0.7-3.1,0.7-3.1s-0.4,0-0.9,0
				C429.6,173.5,429.6,173.5,429.5,173.7L429.5,173.7z"/>
		</g>
		<text transform="matrix(1.1305 0 0 1 438.2959 165.496)" class="st7 st9 st10">REGIONAL</text>
		<text transform="matrix(1.1305 0 0 1 482.8232 183.0868)" class="st7 st9 st10">GROUP</text>
		<path class="st7" d="M418.5,271.6c-0.9,0-2.1,0.3-3.1,0.8l-0.6,0.2v1.5l0.4-0.2c1.4-0.6,2.8-0.6,3.3-0.1c0.4,0.3,0.4,0.9,0.1,1.5
			c-0.2,0.4-1.1,1.7-1.4,1.9c-0.5,0.4-1.5,1-2.1,1.2l-0.3,0.1v0.8c0,0.4,0,0.8,0,0.8c0.1,0,1.2-0.5,1.6-0.7l0.5-0.3l0,0.2
			c0.1,0.4,0.4,0.8,0.8,1c1.2,0.6,3,0.5,5.2-0.4c0.6-0.3,1.4-0.6,1.9-0.9l0.3-0.2v0.2c0,0.5,0.3,1.1,0.7,1.3
			c0.3,0.2,0.8,0.3,1.4,0.4c0.6,0,0.7,0,1.3,0c0.8-0.1,1.6-0.3,2.3-0.6c0.6-0.2,1.4-0.6,1.8-0.8l0.2-0.1l0.1,0.3
			c0.1,0.4,0.4,0.7,0.6,0.9c0.8,0.5,2.5,0.6,4.1,0.1c0.3-0.1,1.6-0.6,1.7-0.7c0,0-0.1-0.1-0.3-0.3c-0.2-0.1-0.4-0.4-0.4-0.5
			c-0.1-0.1-0.2-0.3-0.2-0.3c0,0-0.2,0-0.4,0.1c-1.2,0.3-2.3,0.2-2.6-0.4c-0.1-0.2-0.1-0.3-0.1-0.6c0-0.5,0.1-0.7,0.8-1.5
			c0.6-0.7,1.1-1.1,1.7-1.5c0.3-0.2,0.4-0.3,0.6-0.7c0.2-0.3,0.4-0.6,0.6-0.8c0.2-0.2,0.4-0.4,0.3-0.4c0,0-0.7,0.1-1,0.3
			c-0.2,0.1-0.5,0.3-0.8,0.4l-0.4,0.3v-0.4c0-1.3-1.2-1.9-3.2-1.7c-0.7,0.1-1.3,0.2-2.1,0.4c-0.6,0.2-1.6,0.6-2.2,0.9l-0.4,0.2
			l0-0.1c-0.2-0.7-0.6-1-1.3-1.3c-0.9-0.3-2.4-0.2-3.9,0.3c-0.9,0.3-2.3,0.9-2.8,1.3l-0.2,0.1l0-0.3
			C421.2,272.2,420.1,271.5,418.5,271.6L418.5,271.6z M426.3,273.6c0.6,0.3,0.9,0.9,0.6,1.5c-0.1,0.2-1.1,1.2-1.6,1.7
			c-1.2,1.1-2.9,1.8-4.2,1.9c-0.5,0-0.6,0-0.8,0c-0.6-0.2-0.9-0.5-0.8-1c0-0.3,0.1-0.7,0.3-0.8c0,0,0.3-0.3,0.6-0.6
			c0.6-0.7,1.2-1.2,1.8-1.6c0.9-0.6,2-1,2.8-1.2C425.3,273.5,426,273.5,426.3,273.6L426.3,273.6z M433.9,273.5
			c0.3,0.1,0.6,0.3,0.8,0.5c0.1,0.1,0.1,0.3,0.1,0.5c0,0.5-0.2,0.9-1.1,2c-0.5,0.7-2,1.6-3.3,2c-0.6,0.2-1.2,0.3-1.6,0.2
			c-0.8-0.1-1.1-0.5-1.1-1.1c0-0.5,0.1-0.8,1-1.9c0.4-0.5,0.7-0.8,1.5-1.3C431.6,273.7,433,273.3,433.9,273.5L433.9,273.5z"/>
		<text transform="matrix(1.1305 0 0 1 441.1279 281.1268)" class="st7 st9 st10">SPAIN</text>
	</g>
	
		<linearGradient id="SVGID_1_" gradientUnits="userSpaceOnUse" x1="666.4121" y1="62.3749" x2="712.9523" y2="62.3749" gradientTransform="matrix(0.6602 0.7511 0.7511 -0.6602 -28.668 -249.3604)">
		<stop  offset="0" style="stop-color:#BF463E"/>
		<stop  offset="0.1477" style="stop-color:#BF483E"/>
		<stop  offset="0.2009" style="stop-color:#C14F3D"/>
		<stop  offset="0.2388" style="stop-color:#C45A3B"/>
		<stop  offset="0.2695" style="stop-color:#C86B38"/>
		<stop  offset="0.2958" style="stop-color:#CE8134"/>
		<stop  offset="0.3186" style="stop-color:#D49C30"/>
		<stop  offset="0.3366" style="stop-color:#DBB72B"/>
		<stop  offset="0.6701" style="stop-color:#DCB839"/>
		<stop  offset="0.6883" style="stop-color:#D59C3A"/>
		<stop  offset="0.7106" style="stop-color:#CE813B"/>
		<stop  offset="0.7363" style="stop-color:#C96B3C"/>
		<stop  offset="0.7663" style="stop-color:#C45A3D"/>
		<stop  offset="0.8034" style="stop-color:#C14F3E"/>
		<stop  offset="0.8555" style="stop-color:#BF483E"/>
		<stop  offset="1" style="stop-color:#BF463E"/>
	</linearGradient>
	<circle class="st11" cx="473.5" cy="227.5" r="23.3"/>
</g>
<g>
	<text transform="matrix(1.1305 0 0 1 399.7393 21.9129)" class="st12"><tspan x="0" y="0" class="st13 st14">Promote scientific understanding </tspan><tspan x="0" y="13.7" class="st13 st14">of living systems through </tspan><tspan x="0" y="27.3" class="st13 st14">computing</tspan></text>
	<text transform="matrix(1.1305 0 0 1 399.7393 35.5834)" class="st13 st14"> </text>
	<text transform="matrix(1.1305 0 0 1 399.7393 81.9129)" class="st12"><tspan x="0" y="0" class="st13 st14">Promote the development</tspan><tspan x="0" y="13.7" class="st13 st14">of the next generation of</tspan><tspan x="0" y="27.3" class="st13 st14">computational biologists</tspan></text>
	<text transform="matrix(1.1305 0 0 1 399.7393 366.913)" class="st12"><tspan x="0" y="0" class="st13 st14">Connect students and young </tspan><tspan x="0" y="13.7" class="st13 st14">researchers from a country </tspan><tspan x="0" y="27.3" class="st13 st14">or region</tspan></text>
	<g class="st0">
		<g>
			<line class="st15" x1="461.5" y1="322.5" x2="461.5" y2="347"/>
			<g>
				<circle class="st3" cx="461.5" cy="346.9" r="2.6"/>
			</g>
		</g>
	</g>
	<g class="st0">
		<g>
			<polyline class="st16" points="389,31.5 340.5,31.5 316.2,55.8 			"/>
			<g>
				<circle class="st1" cx="388.9" cy="31.5" r="2.6"/>
			</g>
		</g>
	</g>
	<g class="st0">
		<g>
			<polyline class="st17" points="389,90.5 361.5,90.5 341.1,110.9 			"/>
			<g>
				<circle class="st2" cx="388.9" cy="90.5" r="2.6"/>
			</g>
		</g>
	</g>
</g>
</svg>
