<?xml version="1.0" encoding="utf-8"?>
<!-- Generator: Adobe Illustrator 23.0.2, SVG Export Plug-In . SVG Version: 6.00 Build 0)  -->
<svg version="1.1" id="Capa_1" xmlns="http://www.w3.org/2000/svg" xmlns:xlink="http://www.w3.org/1999/xlink" x="0px" y="0px"
	 viewBox="0 0 1901 839" style="enable-background:new 0 0 1901 839;" xml:space="preserve">
<style type="text/css">
	.st0{font-family:'SegoeUI-Semibold';}
	.st1{font-size:58.8654px;}
	.st2{font-family:'SegoeUI-Semilight';}
	.st3{font-size:34.5691px;}
	.st4{fill:none;stroke:#AFAFAF;stroke-width:3;stroke-miterlimit:10;}
</style>
<text transform="matrix(1 0 0 1 822.2097 48.963)" class="st0 st1">President</text>
<text transform="matrix(1 0 0 1 727.7046 99.5283)" class="st2 st3">ISCB member and RSG leader</text>
<text transform="matrix(1 0 0 1 800.3959 141.0083)" class="st2 st3">Chairs the meetings</text>
<text transform="matrix(1 0 0 1 668.1116 182.4983)" class="st2 st3">In charge of supervision and planning</text>
<text transform="matrix(1 0 0 1 820.1213 389.7046)" class="st0 st1">Secretary</text>
<text transform="matrix(1 0 0 1 844.0432 438.27)" class="st2 st3">ISCB member</text>
<text transform="matrix(1 0 0 1 701.8507 479.75)" class="st2 st3">Complements president’s activity</text>
<text transform="matrix(1 0 0 1 128.3905 686.9629)" class="st0 st1">Supervisor</text>
<text transform="matrix(1 0 0 1 67.7601 741.5283)" class="st2 st3">Bioinformatician, helps RSG</text>
<text transform="matrix(1 0 0 1 66.3002 783.0083)" class="st2 st3">(design, web development, </text>
<text transform="matrix(1 0 0 1 64.1901 824.4983)" class="st2 st3">social networks, welcoming)</text>
<text transform="matrix(1 0 0 1 781.1908 686.9625)" class="st0 st1">Node leader</text>
<text transform="matrix(1 0 0 1 679.3082 738.528)" class="st2 st3">Coordinates activities at a local level</text>
<text transform="matrix(1 0 0 1 1366.5679 686.9629)" class="st0 st1">Member</text>
<text transform="matrix(1 0 0 1 1306.6274 738.5283)" class="st2 st3">Colaborates within RSG</text>
<line class="st4" x1="947" y1="225" x2="947" y2="318"/>
<line class="st4" x1="947.5" y1="515" x2="947.5" y2="608"/>
<line class="st4" x1="274.5" y1="561.5" x2="1472.5" y2="561.5"/>
<line class="st4" x1="274.5" y1="561.5" x2="274.5" y2="608.5"/>
<line class="st4" x1="1472.5" y1="561.5" x2="1472.5" y2="608.5"/>
</svg>
