<?xml version="1.0" encoding="UTF-8" standalone="no"?>
<svg
   xmlns:dc="http://purl.org/dc/elements/1.1/"
   xmlns:cc="http://creativecommons.org/ns#"
   xmlns:rdf="http://www.w3.org/1999/02/22-rdf-syntax-ns#"
   xmlns:svg="http://www.w3.org/2000/svg"
   xmlns="http://www.w3.org/2000/svg"
   xmlns:sodipodi="http://sodipodi.sourceforge.net/DTD/sodipodi-0.dtd"
   xmlns:inkscape="http://www.inkscape.org/namespaces/inkscape"
   height="511pt"
   viewBox="1 -24 511.999 511"
   width="511pt"
   version="1.1"
   id="svg28"
   sodipodi:docname="internet.svg"
   inkscape:version="0.92.4 (f8dce91, 2019-08-02)">
  <metadata
     id="metadata34">
    <rdf:RDF>
      <cc:Work
         rdf:about="">
        <dc:format>image/svg+xml</dc:format>
        <dc:type
           rdf:resource="http://purl.org/dc/dcmitype/StillImage" />
      </cc:Work>
    </rdf:RDF>
  </metadata>
  <defs
     id="defs32" />
  <sodipodi:namedview
     pagecolor="#ffffff"
     bordercolor="#666666"
     borderopacity="1"
     objecttolerance="10"
     gridtolerance="10"
     guidetolerance="10"
     inkscape:pageopacity="0"
     inkscape:pageshadow="2"
     inkscape:window-width="1920"
     inkscape:window-height="1051"
     id="namedview30"
     showgrid="false"
     inkscape:zoom="1.3855186"
     inkscape:cx="323.8522"
     inkscape:cy="209.63361"
     inkscape:window-x="0"
     inkscape:window-y="0"
     inkscape:window-maximized="1"
     inkscape:current-layer="layer1" />
  <g
     inkscape:groupmode="layer"
     id="layer2"
     inkscape:label="Layer 2">
    <rect
       style="fill:#000000;stroke-width:0.75146627"
       id="rect89"
       width="516.33801"
       height="483.79568"
       x="-1.1694874"
       y="-13.652063" />
  </g>
  <g
     inkscape:groupmode="layer"
     id="layer1"
     inkscape:label="Layer 1">
    <path
       inkscape:connector-curvature="0"
       d="m 492.23627,189.95703 h -9.14063 C 474.79877,143.80861 452.72064,101.32423 418.86127,67.468759 375.04878,23.652353 316.79096,-0.47655236 254.83003,-0.47655236 c -61.96094,0 -120.21876,24.12890536 -164.031262,67.94531136 -34.10156,34.101571 -56.26171,76.953131 -64.41796,123.492191 h -8.95703 c -10.2539104,0 -18.5937504,8.33984 -18.5937504,18.59374 v 67.57032 c 0,10.25 8.33984,18.59375 18.5937504,18.59375 h 14.5039 c 12.38672,43.01562 37.08594,81.98046 71.812512,111.81249 3.14453,2.69922 7.88281,2.34375 10.58593,-0.80078 2.70313,-3.14844 2.34375,-7.88672 -0.80079,-10.58984 -8.98436,-7.71485 -17.246092,-16.08985 -24.749992,-25.01172 11.476572,-4.83594 23.203132,-8.82422 35.015622,-12.09375 5.60938,9.89844 11.90235,19.44923 18.88282,28.57031 15.29297,19.98828 32.5625,37.57423 50.96875,52.07031 -15.29297,-4.48046 -30.08203,-10.63671 -44.03125,-18.39062 -3.625,-2.01172 -8.19531,-0.70703 -10.20703,2.91797 -2.01563,3.625 -0.71094,8.19531 2.91406,10.21094 34.22266,19.01171 73.1289,29.0625 112.51172,29.0625 61.96093,0 120.21483,-24.12891 164.03124,-67.94531 28.14453,-28.14063 48.14062,-62.25391 58.85937,-99.46875 h 14.51563 c 10.25391,0 18.59375,-8.33984 18.59375,-18.59376 v -68.91796 c 0,-10.25 -8.33984,-18.59376 -18.59375,-18.59376 z m -24.42578,0 h -52.22656 c -0.625,-3.89062 -1.31641,-7.78124 -2.1211,-11.66796 -4.46094,-21.53515 -11.43359,-42.09765 -20.80469,-61.50782 1.38283,-0.3789 2.77344,-0.74999 4.14844,-1.14061 9.5586,-2.73438 21.72656,-6.45314 33.6797,-11.56641 18.66796,25.62891 31.33593,54.83984 37.32421,85.8828 z m -67.27734,1.00392 h -77.57813 c -0.2578,-3.76563 -0.53905,-7.53125 -0.87108,-11.28906 -1.4883,-16.79688 -3.68361,-33.05861 -6.51173,-48.60938 21.51953,-2.23437 42.30468,-5.73047 62.24609,-10.47265 9.51173,19.09765 16.52344,39.41796 20.94141,60.74609 0.66406,3.20312 1.23828,6.41406 1.77344,9.625 z m 7.71093,-112.878911 c 4.42188,4.421876 8.6211,9.007812 12.60938,13.730469 -10,4.015625 -20.06249,7.070313 -28.17577,9.390632 -2.35158,0.67187 -4.71875,1.31639 -7.09376,1.94922 -4.7461,-8.507816 -9.96094,-16.777349 -15.67188,-24.777354 -14.96484,-20.953121 -32.71093,-39.296871 -52.97266,-54.855465 34.13672,10.148437 65.41797,28.675781 91.30469,54.562498 z M 277.98237,15.765635 c 31.88282,17.921874 58.70312,41.914062 79.71093,71.335938 4.57814,6.417966 8.81641,13.023427 12.73829,19.789057 -18.54298,4.23047 -37.83595,7.3672 -57.79297,9.38673 -8.6914,-40.464854 -21.85548,-75.320319 -38.34376,-100.867193 1.23047,0.105469 2.46095,0.222655 3.68751,0.355468 z m -23.15234,-1.226563 c 0.18358,0 0.36327,0.0039 0.54686,0.0039 18.24219,24.074228 32.82814,60.035166 42.22266,103.039068 -16.03905,1.15625 -32.46874,1.62891 -49.26172,1.38282 -11.39842,-0.16407 -23.59765,-0.51953 -36.29686,-1.29297 9.39453,-43.042971 23.98827,-79.039064 42.24219,-103.128908 0.18359,0 0.36328,-0.0039 0.54687,-0.0039 z m -19.46484,0.871095 c -16.53125,25.605468 -29.71486,60.566407 -38.40625,101.148443 -18.84767,-1.64063 -38.52735,-4.35547 -58.21486,-8.83985 4.0547,-7.05859 8.45313,-13.941408 13.22267,-20.621094 21.00781,-29.417969 47.82811,-53.410157 79.71093,-71.335938 1.22656,-0.128906 2.45704,-0.246092 3.68751,-0.351561 z M 194.02925,131.37891 c -2.80079,15.45313 -4.97657,31.60937 -6.45313,48.29298 -0.33204,3.75781 -0.61329,7.52343 -0.86718,11.28906 h -77.58985 c 0.53125,-3.21094 1.11719,-6.42188 1.78124,-9.625 4.35157,-21.01563 11.23439,-41.04688 20.53126,-59.90235 21.19531,5.08594 42.3711,8.1211 62.59766,9.94531 z M 101.41597,78.082039 c 25.88672,-25.886717 57.16797,-44.414061 91.30467,-54.562498 -20.26561,15.558594 -38.0117,33.902344 -52.97264,54.855465 -5.88281,8.238287 -11.23829,16.769533 -16.09375,25.550774 -11.76953,-3.26171 -23.45703,-7.242178 -34.890632,-12.062488 4,-4.73828 8.21485,-9.339846 12.652352,-13.781253 z M 79.165958,104.08986 c 12.28906,5.39453 24.843762,9.81639 37.472662,13.44531 -9.1875,19.1914 -16.03906,39.49609 -20.441412,60.7539 -0.87109,4.21875 -1.625,8.44531 -2.28516,12.67188 h -52.2578 c 5.90625,-31.41407 18.64843,-60.97266 37.51171,-86.87109 z m -61.74218,176.61328 c -1.97266,0 -3.57813,-1.60547 -3.57813,-3.58203 v -67.57032 c 0,-1.97266 1.60547,-3.57813 3.57813,-3.57813 H 234.14252 c 4.14844,0 7.50781,-3.35937 7.50781,-7.5078 0,-4.14454 -3.35937,-7.50782 -7.50781,-7.50782 H 201.7519 c 0.23437,-3.32032 0.48829,-6.64453 0.78125,-9.96093 1.48828,-16.80079 3.69141,-33.01563 6.53515,-48.46485 13.69532,0.87891 26.82032,1.26953 39.0547,1.44531 2.96093,0.043 5.91405,0.0664 8.85936,0.0664 14.81251,0 29.34766,-0.55469 43.58986,-1.63281 2.85155,15.48437 5.0625,31.74219 6.55468,48.58594 0.29296,3.3164 0.55078,6.64062 0.78516,9.96092 h -26.89454 c -4.14453,0 -7.50781,3.36329 -7.50781,7.50783 0,4.14842 3.36328,7.50781 7.50781,7.50781 h 116.45312 v 74.72655 H 17.423778 Z m 378.246082,15.01172 c -4.32422,16.14061 -10.30859,31.78905 -17.89842,46.67967 -19.90626,-4.73047 -40.64455,-8.23437 -62.12501,-10.46875 2.15625,-11.73828 3.92578,-23.83984 5.29296,-36.20702 h 74.73047 z m -89.82031,0 c -1.35547,11.92577 -3.09765,23.58202 -5.21093,34.8789 -17.09376,-1.29688 -34.60938,-1.83595 -52.51562,-1.57423 -12.25782,0.17579 -25.40625,0.56641 -39.125,1.44922 -2.10156,-11.25781 -3.83595,-22.87109 -5.1875,-34.75389 z M 79.212838,358.89063 c -13.94531,-19.21875 -24.61719,-40.56249 -31.62109,-63.17577 h 50.90625 c 4.312502,17.17186 10.367192,33.84764 18.136722,49.74999 -12.61328,3.625 -25.152352,8.03906 -37.421882,13.42578 z m 34.792972,-63.17577 h 74.70312 c 1.35547,12.26562 3.11329,24.26952 5.24609,35.91406 -20.19531,1.8203 -41.33593,4.85546 -62.49219,9.92578 -7.38671,-14.63673 -13.21483,-30.00392 -17.45702,-45.83984 z M 231.60347,447.1875 c -28.08986,-15.82422 -54.70313,-39.55858 -77.00391,-68.70703 -5.71094,-7.45702 -10.91797,-15.23047 -15.65234,-23.25 19.60547,-4.45312 39.19922,-7.15233 57.96875,-8.78906 2.96875,13.63673 6.48828,26.6914 10.54296,38.96094 5.98437,18.08203 15.3789,42.20312 28.01171,62.17578 -1.28906,-0.11328 -2.57811,-0.25 -3.86717,-0.39063 z m 23.22656,1.27344 c -0.18359,0 -0.36328,-0.008 -0.54689,-0.008 -11.82031,-15.66015 -23.0625,-39.03516 -32.5664,-67.76563 -3.6914,-11.16015 -6.91406,-23.00389 -9.67187,-35.36327 12.69921,-0.76954 24.89453,-1.12892 36.29296,-1.29298 16.79298,-0.23828 33.21876,0.23439 49.25781,1.39064 -2.7539,12.32422 -5.97264,24.13671 -9.65233,35.26561 -9.5,28.73047 -20.74609,52.10548 -32.56642,67.76563 -0.18359,0.004 -0.36328,0.008 -0.54686,0.008 z m 19.34375,-0.85938 c 12.64061,-19.97656 22.04297,-44.10937 28.02344,-62.19921 4.03125,-12.18359 7.52734,-25.13672 10.48046,-38.67188 19.87109,2.01172 39.07812,5.125 57.54296,9.32813 -4.60156,7.72656 -9.64843,15.22265 -15.16015,22.42187 -22.32422,29.17578 -48.96485,52.92969 -77.08202,68.75391 -1.26564,0.13281 -2.53517,0.2539 -3.80469,0.36718 z m 134.0703,-62.6875 c -26.15625,26.15626 -57.82031,44.79688 -92.36719,54.8711 18.45704,-14.51563 35.77735,-32.14063 51.10938,-52.17969 6.80079,-8.88281 12.94141,-18.17969 18.4375,-27.80468 2.42969,0.64844 4.85156,1.30859 7.25392,1.99218 8.10545,2.32031 18.16014,5.375 28.15624,9.38672 -3.98829,4.72267 -8.16797,9.31642 -12.58985,13.73437 z m 22.21875,-26 c -11.94531,-5.10546 -24.10547,-8.82421 -33.65625,-11.55468 -1.375,-0.39453 -2.76561,-0.76171 -4.14844,-1.14063 7.89454,-16.01953 14.03907,-32.83984 18.41407,-50.15624 h 50.95312 c -6.96875,22.47265 -17.58594,43.66406 -31.5625,62.85155 z m 65.35156,-81.78905 c 0,1.97266 -1.60546,3.57813 -3.57812,3.57813 h -79.75391 v -74.73048 h 79.75391 c 1.97266,0 3.57812,1.60938 3.57812,3.58203 z m 0,0"
       id="path2"
       style="fill:#ffffff;stroke-width:1" />
    <path
       inkscape:connector-curvature="0"
       d="m 201.26337,268.05755 c -0.74842,1.8112 -3.08349,2.44733 -5.41856,2.44733 -2.65688,0 -4.99945,-0.85319 -5.63562,-2.44733 l -8.18773,-23.17109 -8.07546,23.06633 c -0.63613,1.6989 -3.18826,2.55209 -5.84516,2.55209 -2.23027,0 -4.57284,-0.63613 -5.31378,-2.55209 L 146.4191,225.97383 c -0.42659,-0.8532 -0.53139,-1.48935 -0.53139,-2.02074 0,-3.29304 5.31381,-5.63558 8.92866,-5.63558 1.80369,0 3.39782,0.74094 3.92921,2.23029 l 10.62759,30.18382 7.97067,-26.25461 c 0.74841,-2.43988 2.55213,-2.76169 4.67762,-2.76169 2.02074,0 3.9367,0.32181 4.67764,2.76169 l 7.86591,26.35936 10.73237,-30.28857 c 0.53135,-1.38461 2.02074,-2.23029 3.93669,-2.23029 3.39782,0 8.82387,2.33507 8.82387,5.74036 0,0.63616 -0.1048,1.3771 -0.42661,1.91596 z m 0,0"
       id="path20"
       style="fill:#ffffff;stroke-width:1.91595781" />
    <path
       inkscape:connector-curvature="0"
       d="m 281.29951,268.05755 c -0.74094,1.8112 -3.07601,2.44733 -5.41858,2.44733 -2.65687,0 -4.99195,-0.85319 -5.63558,-2.44733 l -8.18023,-23.17109 -8.08297,23.06633 c -0.63616,1.6989 -3.1808,2.55209 -5.84517,2.55209 -2.23029,0 -4.56536,-0.63613 -5.31377,-2.55209 l -16.36797,-41.97896 c -0.42661,-0.8532 -0.53139,-1.48935 -0.53139,-2.02074 0,-3.29304 5.31377,-5.63558 8.92865,-5.63558 1.80372,0 3.39784,0.74094 3.9367,2.23029 l 10.62759,30.18382 7.97067,-26.25461 c 0.74096,-2.43988 2.55211,-2.76169 4.67766,-2.76169 2.0207,0 3.92918,0.32181 4.67012,2.76169 l 7.86589,26.35936 10.73986,-30.28857 c 0.53139,-1.38461 2.02075,-2.23029 3.92921,-2.23029 3.40531,0 8.82387,2.33507 8.82387,5.74036 0,0.63616 -0.1048,1.3771 -0.42659,1.91596 z m 0,0"
       id="path22"
       style="fill:#ffffff;stroke-width:1.91595781" />
    <path
       inkscape:connector-curvature="0"
       d="m 361.34313,268.05755 c -0.74094,1.8112 -3.07601,2.44733 -5.41856,2.44733 -2.6569,0 -4.99197,-0.85319 -5.6356,-2.44733 l -8.18024,-23.17109 -8.08296,23.06633 c -0.63616,1.6989 -3.18825,2.55209 -5.84517,2.55209 -2.23029,0 -4.56536,-0.63613 -5.31379,-2.55209 l -16.36795,-41.97896 c -0.42661,-0.8532 -0.53139,-1.48935 -0.53139,-2.02074 0,-3.29304 5.31381,-5.63558 8.92867,-5.63558 1.8037,0 3.39781,0.74094 3.93668,2.23029 l 10.62758,30.18382 7.9707,-26.25461 c 0.74093,-2.43988 2.54462,-2.76169 4.67012,-2.76169 2.02074,0 3.9367,0.32181 4.67766,2.76169 l 7.86589,26.35936 10.73984,-30.28857 c 0.52392,-1.38461 2.02074,-2.23029 3.92921,-2.23029 3.39784,0 8.82389,2.33507 8.82389,5.74036 0,0.63616 -0.10481,1.3771 -0.42661,1.91596 z m 0,0"
       id="path24"
       style="fill:#ffffff;stroke-width:1.91595781" />
    <rect
       style="fill:#000000;stroke-width:1.087129"
       id="rect91"
       width="48.816643"
       height="74.726562"
       x="388.79269"
       y="205.97266" />
  </g>
</svg>
